<svg width="24" height="25" viewBox="0 0 24 25" fill="none" xmlns="http://www.w3.org/2000/svg">
<g clip-path="url(#clip0_391_832)">
<path fill-rule="evenodd" clip-rule="evenodd" d="M7.74998 5.39819L19.15 16.7982L1.19998 23.9482L0.599976 23.3482L7.74998 5.39819Z" stroke="#A989F5" stroke-miterlimit="10"/>
<path d="M12.21 0.908203C15.63 4.2082 12.73 7.0082 12.73 7.0082" stroke="#A989F5" stroke-miterlimit="10"/>
<path d="M17.99 12.2582C17.99 12.2582 20.75 9.48815 23.64 12.4582" stroke="#A989F5" stroke-miterlimit="10"/>
<path d="M19.15 7.00819L19.68 6.47819C20.37 5.78819 21.31 5.39819 22.28 5.39819H22.97" stroke="#A989F5" stroke-miterlimit="10"/>
<path d="M4.15002 14.2083L5.95002 21.9083" stroke="#A989F5" stroke-miterlimit="10"/>
<path d="M9.91003 7.49829L12.09 18.0583" stroke="#A989F5" stroke-miterlimit="10"/>
</g>
<defs>
<clipPath id="clip0_391_832">
<rect width="24" height="24" fill="white" transform="translate(0 0.548096)"/>
</clipPath>
</defs>
</svg>
