<svg width="31" height="31" viewBox="0 0 31 31" fill="none" xmlns="http://www.w3.org/2000/svg">
<path d="M14.6363 1.24309L13.3359 8.31011C12.9104 10.611 11.0899 12.3954 8.79653 12.818L1.68007 14.1093C0.427006 14.3441 0.427006 16.1285 1.68007 16.3398L8.79653 17.6311C11.1135 18.0537 12.9104 19.8615 13.3359 22.139L14.6363 29.206C14.8727 30.4503 16.6695 30.4503 16.8823 29.206L18.1827 22.139C18.6082 19.8381 20.4287 18.0537 22.7221 17.6311L29.8385 16.3398C31.0916 16.105 31.0916 14.3206 29.8385 14.1093L22.7221 12.818C20.4051 12.3954 18.6082 10.5875 18.1827 8.31011L16.8823 1.24309C16.6459 -0.00127575 14.849 -0.00127575 14.6363 1.24309Z" fill="url(#paint0_linear_289_7786)"/>
<defs>
<linearGradient id="paint0_linear_289_7786" x1="23.5259" y1="22.9607" x2="8.10092" y2="7.42783" gradientUnits="userSpaceOnUse">
<stop offset="0.33" stop-color="#10AEAE" stop-opacity="0.61"/>
<stop offset="0.43" stop-color="#1CB3B1" stop-opacity="0.66"/>
<stop offset="0.63" stop-color="#3BC0B9" stop-opacity="0.79"/>
<stop offset="0.91" stop-color="#6FD7C6"/>
</linearGradient>
</defs>
</svg>
