<svg width="300" height="56" viewBox="0 0 300 56" fill="none" xmlns="http://www.w3.org/2000/svg">
<path d="M0 1.44997C0.4 1.39997 0.800003 1.34996 1.35 1.34996C1.9 1.29996 2.35 1.29996 2.8 1.29996C3.3 1.29996 3.75 1.29996 4.25 1.34996C4.75 1.39996 5.15 1.39997 5.5 1.44997V54.4C5.15 54.45 4.7 54.5 4.25 54.5C3.75 54.5 3.3 54.55 2.8 54.55C2.25 54.55 1.75 54.55 1.25 54.5C0.750001 54.45 0.35 54.45 0 54.4V1.44997ZM42.3 16.85C42.7 16.8 43.15 16.75 43.55 16.75C43.95 16.75 44.35 16.7 44.7 16.7C45.1 16.7 45.5 16.7 45.9 16.75C46.25 16.75 46.65 16.8 47.1 16.85C47.2 17.75 47.3 18.85 47.35 20.15C47.4 21.5 47.45 22.65 47.45 23.6C48 22.7 48.65 21.8 49.5 20.9C50.35 20 51.35 19.15 52.5 18.4C53.65 17.65 54.95 17.05 56.45 16.6C57.9501 16.15 59.55 15.9 61.3 15.9C65.9501 15.9 69.3501 17.2 71.5001 19.75C73.6001 22.35 74.7001 25.95 74.7001 30.6V54.4C74.4001 54.45 73.9501 54.5 73.4001 54.5C72.8501 54.5 72.4001 54.55 72.1001 54.55C71.8501 54.55 71.4001 54.55 70.8501 54.5C70.2501 54.45 69.8001 54.45 69.5001 54.4V32.15C69.5001 28 68.8 25 67.4 23.15C66 21.35 63.9001 20.45 61.05 20.45C59.2001 20.45 57.45 20.8 55.8 21.45C54.15 22.15 52.75 23.15 51.55 24.45C50.35 25.75 49.4 27.35 48.7 29.3C48 31.2 47.65 33.4 47.65 35.85V54.4C47.35 54.45 46.9 54.5 46.35 54.5C45.8 54.5 45.35 54.55 45.05 54.55C44.8 54.55 44.35 54.55 43.75 54.5C43.15 54.45 42.7 54.45 42.4 54.4V16.85H42.3ZM121.25 16.85C121.55 16.8 122 16.75 122.5 16.75C123 16.75 123.5 16.7 124.05 16.7C124.45 16.7 125 16.7 125.6 16.75C126.2 16.75 126.65 16.8 127 16.85L136 48.85L146.05 16.85C146.45 16.8 146.95 16.75 147.45 16.75C147.95 16.75 148.5 16.7 149.1 16.7H150.4C150.85 16.7 151.3 16.75 151.7 16.85L161.7 48.4L170.7 16.85C171 16.8 171.4 16.75 171.85 16.75C172.3 16.75 172.75 16.7 173.15 16.7C173.55 16.7 174.05 16.7 174.6 16.75C175.15 16.75 175.55 16.8 175.85 16.85L164.15 54.4C163.2 54.55 162.25 54.6 161.35 54.6C160.35 54.6 159.4 54.5 158.55 54.4L148.75 23.3L138.5 54.4C137.55 54.55 136.6 54.6 135.7 54.6C134.7 54.6 133.75 54.5 132.9 54.4L121.25 16.85ZM182.65 1.44997C183.2 1.39997 183.95 1.34997 184.9 1.24997C185.9 1.14997 186.95 1.04997 188.05 0.949967C189.15 0.849967 190.3 0.749967 191.45 0.699966C192.6 0.649966 193.6 0.649963 194.5 0.649963C200.75 0.649963 205.55 1.74997 208.9 3.99997C212.25 6.24997 213.9 9.69997 213.9 14.4C213.9 15.95 213.65 17.3 213.15 18.55C212.65 19.8 211.95 20.95 211.1 21.95C210.25 22.95 209.25 23.8 208.1 24.5C206.95 25.2 205.8 25.7 204.55 26.05C206.2 26.25 207.8 26.65 209.35 27.25C210.9 27.85 212.25 28.75 213.45 29.85C214.65 30.95 215.6 32.35 216.3 33.95C217 35.6 217.4 37.55 217.4 39.9C217.4 42.55 216.85 44.85 215.7 46.75C214.55 48.65 212.95 50.25 210.95 51.55C208.9 52.85 206.5 53.75 203.7 54.4C200.9 55 197.9 55.3 194.6 55.3C193.75 55.3 192.8 55.3 191.75 55.25C190.7 55.2 189.6 55.15 188.55 55.05C187.45 55 186.4 54.9 185.35 54.75C184.3 54.6 183.45 54.5 182.7 54.4V1.44997H182.65ZM195.7 24C200 24 203.15 23.1 205.15 21.35C207.15 19.6 208.15 17.3 208.15 14.4C208.15 11.75 207.1 9.54998 205 7.74997C202.9 5.94997 199.6 5.04996 195.1 5.04996C193.7 5.04996 192.4 5.09997 191.15 5.19997C189.9 5.29997 188.9 5.39997 188.15 5.49997V24H195.7ZM188.15 50.3C188.9 50.4 189.9 50.5 191.15 50.55C192.4 50.6 193.7 50.65 195.1 50.65C197.15 50.65 199.2 50.5 201.2 50.15C203.2 49.8 204.95 49.2 206.5 48.4C208.05 47.55 209.25 46.45 210.2 45.1C211.15 43.75 211.6 42 211.6 39.95C211.6 37.9 211.2 36.15 210.4 34.75C209.6 33.35 208.5 32.2 207.15 31.3C205.75 30.4 204.15 29.8 202.3 29.4C200.45 29 198.45 28.8 196.35 28.8H188.25V50.3H188.15ZM228.9 36.35C228.9 41.35 230.15 45.05 232.65 47.4C235.15 49.75 238.85 50.95 243.85 50.95C245.85 50.95 247.75 50.8 249.45 50.5C251.2 50.2 252.85 49.75 254.5 49.2C254.8 49.75 255 50.4 255.15 51.2C255.3 52 255.4 52.7 255.45 53.35C253.9 54 252.1 54.5 250.05 54.85C248 55.2 245.75 55.35 243.3 55.35C239.8 55.35 236.8 54.9 234.3 53.9C231.8 52.95 229.7 51.6 228.1 49.9C226.45 48.2 225.3 46.1 224.5 43.75C223.75 41.35 223.35 38.75 223.35 35.9C223.35 33.15 223.7 30.55 224.45 28.15C225.15 25.75 226.25 23.6 227.7 21.8C229.15 19.95 231 18.55 233.3 17.5C235.6 16.45 238.3 15.95 241.5 15.95C244.15 15.95 246.5 16.35 248.55 17.2C250.6 18.05 252.35 19.2 253.75 20.7C255.15 22.2 256.2 24 256.95 26.1C257.65 28.2 258 30.45 258 32.9C258 33.35 258 33.9 257.95 34.6C257.9 35.3 257.9 35.85 257.85 36.35H228.9ZM252.8 32.3C252.8 30.8 252.6 29.3 252.15 27.8C251.75 26.3 251.05 25.05 250.15 23.95C249.25 22.85 248.1 21.95 246.65 21.25C245.25 20.55 243.5 20.2 241.5 20.2C237.8 20.2 234.9 21.25 232.8 23.35C230.7 25.45 229.5 28.45 229.05 32.25H252.8V32.3ZM9.20001 27.3L29.35 1.44997C29.75 1.39997 30.2 1.34996 30.65 1.34996C31.1 1.29996 31.55 1.29996 31.95 1.29996C32.55 1.29996 33.1 1.29996 33.6 1.34996C34.15 1.39996 34.7 1.39997 35.25 1.44997L15.65 26.8L38.25 54.45C37.65 54.5 37.05 54.55 36.45 54.55C35.85 54.55 35.25 54.6 34.65 54.6C34.15 54.6 33.7 54.6 33.2 54.55C32.7 54.5 32.2 54.5 31.7 54.45L9.20001 27.3Z" fill="#171321"/>
<path d="M120.45 35.1001C120.45 24.0501 111.5 15.1001 100.45 15.1001C89.3998 15.1001 80.4498 24.0501 80.4498 35.1001C80.4498 46.1501 89.3998 55.1001 100.45 55.1001C111.5 55.1001 120.45 46.1501 120.45 35.1001Z" fill="#171321"/>
<path opacity="0.64" d="M85.5001 28.8504C85.5001 35.3504 92.2501 40.6004 100.6 40.6004C108.95 40.6004 115.7 35.3504 115.7 28.8504C115.7 22.3504 108.95 17.1004 100.6 17.1004C92.2501 17.1004 85.5001 22.3504 85.5001 28.8504Z" fill="#171321"/>
<path d="M111.95 25.1505C109.3 22.1505 105.6 20.4005 101.6 20.1505C97.6001 19.9005 93.7501 21.2505 90.7501 23.9505C88.1001 26.3005 86.4001 29.5006 85.9001 33.0006L83.2001 32.9006L87.1501 39.8506L92.1001 33.2506L89.0501 33.1506C89.5001 30.5006 90.8501 28.1005 92.8501 26.3005C95.2501 24.2005 98.3001 23.1005 101.5 23.3005C104.7 23.5005 107.6 24.9005 109.75 27.3005C111.9 29.7005 112.95 32.7506 112.75 35.9506C112.55 39.1506 111.15 42.0506 108.75 44.2006L110.8 46.5006C113.8 43.8506 115.6 40.1506 115.8 36.1506C116 32.0506 114.65 28.1505 111.95 25.1505Z" fill="white"/>
<path d="M111.95 24.8508C109.3 21.8508 105.6 20.1008 101.6 19.8508C97.6001 19.6008 93.7501 20.9508 90.7501 23.6508C88.1001 26.0508 86.4001 29.2008 85.9001 32.7008L83.2001 32.6008L87.1501 39.5508L92.1001 32.9008L89.0501 32.8008C89.5001 30.1508 90.8501 27.7508 92.8501 25.9508C95.2501 23.8508 98.3001 22.7508 101.5 22.9508C104.7 23.1508 107.6 24.5508 109.75 26.9508C111.9 29.3508 112.95 32.4008 112.75 35.6008C112.55 38.8008 111.15 41.7009 108.75 43.8009L110.8 46.1008C113.8 43.4508 115.6 39.7509 115.8 35.7509C116 31.7008 114.65 27.8508 111.95 24.8508Z" fill="white"/>
<path d="M260.05 42.8502L259.5 42.1002L283.35 1.45018C284.35 1.10018 285.1 1.00018 285.95 1.00018C287.6 1.00018 288 1.20018 288.7 1.40018L267.05 38.5002H285.9V22.4502C286.85 22.3002 287.75 22.2502 288.6 22.2502C289.45 22.2502 290.35 22.3002 291.25 22.4502V38.5002H299.75C299.9 39.3502 300 39.7502 300 40.5002C300 41.3002 299.9 42.0502 299.75 42.8002H291.25V54.5502C290.8 54.6502 290.3 54.7002 289.85 54.7002H287.25C286.8 54.7002 286.35 54.6502 285.95 54.5502V42.8002H260.05V42.8502Z" fill="#171321"/>
</svg>
